{"timestamp":"2022-01-05T10:08:24.905735Z","level":"TRACE","fields":{"event_name":"ServerHandshakeStart","test_name":"picnic3l1_KYBER512"},"target":"PERF_TEST","spans":[{"name":"ExpectClientHello"}]}
{"timestamp":"2022-01-05T10:08:24.905837Z","level":"TRACE","fields":{"event_name":"KeyGenerationStart","test_name":"picnic3l1_KYBER512"},"target":"PERF_TEST","spans":[{"name":"ExpectClientHello"}]}
{"timestamp":"2022-01-05T10:08:24.905910Z","level":"TRACE","fields":{"event_name":"KeyGenerationEnd","test_name":"picnic3l1_KYBER512"},"target":"PERF_TEST","spans":[{"name":"ExpectClientHello"}]}
{"timestamp":"2022-01-05T10:08:24.905916Z","level":"TRACE","fields":{"event_name":"KeyEncapsulationStart","test_name":"picnic3l1_KYBER512"},"target":"PERF_TEST","spans":[{"name":"ExpectClientHello"}]}
{"timestamp":"2022-01-05T10:08:24.905960Z","level":"TRACE","fields":{"event_name":"KeyEncapsulationEnd","test_name":"picnic3l1_KYBER512"},"target":"PERF_TEST","spans":[{"name":"ExpectClientHello"}]}
{"timestamp":"2022-01-05T10:08:24.906185Z","level":"TRACE","fields":{"event_name":"SignatureSignStart","test_name":"picnic3l1_KYBER512"},"target":"PERF_TEST","spans":[{"name":"ExpectClientHello"},{"name":"CertificateVerify"}]}
{"timestamp":"2022-01-05T10:08:24.915486Z","level":"TRACE","fields":{"event_name":"SignatureSignEnd","test_name":"picnic3l1_KYBER512"},"target":"PERF_TEST","spans":[{"name":"ExpectClientHello"},{"name":"CertificateVerify"}]}
{"timestamp":"2022-01-05T10:08:24.915570Z","level":"TRACE","fields":{"event_name":"ServerHandshakeEnd","test_name":"picnic3l1_KYBER512"},"target":"PERF_TEST","spans":[{"name":"ExpectClientHello"}]}
