{"timestamp":"2022-01-05T10:09:06.976906Z","level":"TRACE","fields":{"event_name":"ServerHandshakeStart","test_name":"rainbowIclassic_SECP_256_R1"},"target":"PERF_TEST","spans":[{"name":"ExpectClientHello"}]}
{"timestamp":"2022-01-05T10:09:06.977189Z","level":"TRACE","fields":{"event_name":"KeyGenerationStart","test_name":"rainbowIclassic_SECP_256_R1"},"target":"PERF_TEST","spans":[{"name":"ExpectClientHello"}]}
{"timestamp":"2022-01-05T10:09:06.977235Z","level":"TRACE","fields":{"event_name":"KeyGenerationEnd","test_name":"rainbowIclassic_SECP_256_R1"},"target":"PERF_TEST","spans":[{"name":"ExpectClientHello"}]}
{"timestamp":"2022-01-05T10:09:06.977241Z","level":"TRACE","fields":{"event_name":"KeyEncapsulationStart","test_name":"rainbowIclassic_SECP_256_R1"},"target":"PERF_TEST","spans":[{"name":"ExpectClientHello"}]}
{"timestamp":"2022-01-05T10:09:06.977303Z","level":"TRACE","fields":{"event_name":"KeyEncapsulationEnd","test_name":"rainbowIclassic_SECP_256_R1"},"target":"PERF_TEST","spans":[{"name":"ExpectClientHello"}]}
{"timestamp":"2022-01-05T10:09:06.978929Z","level":"TRACE","fields":{"event_name":"SignatureSignStart","test_name":"rainbowIclassic_SECP_256_R1"},"target":"PERF_TEST","spans":[{"name":"ExpectClientHello"},{"name":"CertificateVerify"}]}
{"timestamp":"2022-01-05T10:09:06.980905Z","level":"TRACE","fields":{"event_name":"SignatureSignEnd","test_name":"rainbowIclassic_SECP_256_R1"},"target":"PERF_TEST","spans":[{"name":"ExpectClientHello"},{"name":"CertificateVerify"}]}
{"timestamp":"2022-01-05T10:09:06.980924Z","level":"TRACE","fields":{"event_name":"ServerHandshakeEnd","test_name":"rainbowIclassic_SECP_256_R1"},"target":"PERF_TEST","spans":[{"name":"ExpectClientHello"}]}
