{"timestamp":"2022-02-10T15:19:31.980080Z","level":"TRACE","fields":{"event_name":"RequestStart","test_name":"picnicl1full_SECP_256_R1"},"target":"PERF_TEST","spans":[{"name":"Request"}]}
{"timestamp":"2022-02-10T15:19:32.004646Z","level":"TRACE","fields":{"event_name":"ClientHandshakeStart","test_name":"picnicl1full_SECP_256_R1"},"target":"PERF_TEST","spans":[{"name":"Request"},{"name":"ClientHello"}]}
{"timestamp":"2022-02-10T15:19:32.004666Z","level":"TRACE","fields":{"event_name":"KeyGenerationStart","test_name":"picnicl1full_SECP_256_R1"},"target":"PERF_TEST","spans":[{"name":"Request"},{"name":"ClientHello"}]}
{"timestamp":"2022-02-10T15:19:32.004704Z","level":"TRACE","fields":{"event_name":"KeyGenerationEnd","test_name":"picnicl1full_SECP_256_R1"},"target":"PERF_TEST","spans":[{"name":"Request"},{"name":"ClientHello"}]}
{"timestamp":"2022-02-10T15:19:32.030585Z","level":"TRACE","fields":{"event_name":"KeyDecapsulationStart","test_name":"picnicl1full_SECP_256_R1"},"target":"PERF_TEST","spans":[{"name":"Request"},{"name":"ExpectServerHello"}]}
{"timestamp":"2022-02-10T15:19:32.030908Z","level":"TRACE","fields":{"event_name":"KeyDecapsulationEnd","test_name":"picnicl1full_SECP_256_R1"},"target":"PERF_TEST","spans":[{"name":"Request"},{"name":"ExpectServerHello"}]}
{"timestamp":"2022-02-10T15:19:32.087601Z","level":"TRACE","fields":{"event_name":"SignatureVerifyStart","test_name":"picnicl1full_SECP_256_R1"},"target":"PERF_TEST","spans":[{"name":"Request"},{"name":"ExpectServerHello"}]}
{"timestamp":"2022-02-10T15:19:32.088788Z","level":"TRACE","fields":{"event_name":"SignatureVerifyEnd","test_name":"picnicl1full_SECP_256_R1"},"target":"PERF_TEST","spans":[{"name":"Request"},{"name":"ExpectServerHello"}]}
{"timestamp":"2022-02-10T15:19:32.088877Z","level":"TRACE","fields":{"event_name":"ClientHandshakeEnd","test_name":"picnicl1full_SECP_256_R1"},"target":"PERF_TEST","spans":[{"name":"Request"},{"name":"ExpectFinished"}]}
{"timestamp":"2022-02-10T15:19:32.131148Z","level":"TRACE","fields":{"event_name":"RequestEnd","test_name":"picnicl1full_SECP_256_R1"},"target":"PERF_TEST","spans":[{"name":"Request"}]}
