{"timestamp":"2022-01-05T10:08:12.824028Z","level":"TRACE","fields":{"event_name":"RequestStart","test_name":"ecdsa_CLASSIC_MC_ELIECE_348864F"},"target":"PERF_TEST","spans":[{"name":"Request"}]}
{"timestamp":"2022-01-05T10:08:12.924715Z","level":"TRACE","fields":{"event_name":"ClientHandshakeStart","test_name":"ecdsa_CLASSIC_MC_ELIECE_348864F"},"target":"PERF_TEST","spans":[{"name":"Request"},{"name":"ClientHello"}]}
{"timestamp":"2022-01-05T10:08:12.924763Z","level":"TRACE","fields":{"event_name":"KeyGenerationStart","test_name":"ecdsa_CLASSIC_MC_ELIECE_348864F"},"target":"PERF_TEST","spans":[{"name":"Request"},{"name":"ClientHello"}]}
{"timestamp":"2022-01-05T10:08:13.036250Z","level":"TRACE","fields":{"event_name":"KeyGenerationEnd","test_name":"ecdsa_CLASSIC_MC_ELIECE_348864F"},"target":"PERF_TEST","spans":[{"name":"Request"},{"name":"ClientHello"}]}
{"timestamp":"2022-01-05T10:08:13.652928Z","level":"TRACE","fields":{"event_name":"KeyDecapsulationStart","test_name":"ecdsa_CLASSIC_MC_ELIECE_348864F"},"target":"PERF_TEST","spans":[{"name":"Request"},{"name":"ExpectServerHello"}]}
{"timestamp":"2022-01-05T10:08:13.653048Z","level":"TRACE","fields":{"event_name":"KeyDecapsulationEnd","test_name":"ecdsa_CLASSIC_MC_ELIECE_348864F"},"target":"PERF_TEST","spans":[{"name":"Request"},{"name":"ExpectServerHello"}]}
{"timestamp":"2022-01-05T10:08:13.654179Z","level":"TRACE","fields":{"event_name":"SignatureVerifyStart","test_name":"ecdsa_CLASSIC_MC_ELIECE_348864F"},"target":"PERF_TEST","spans":[{"name":"Request"},{"name":"ExpectServerHello"}]}
{"timestamp":"2022-01-05T10:08:13.654255Z","level":"TRACE","fields":{"event_name":"SignatureVerifyEnd","test_name":"ecdsa_CLASSIC_MC_ELIECE_348864F"},"target":"PERF_TEST","spans":[{"name":"Request"},{"name":"ExpectServerHello"}]}
{"timestamp":"2022-01-05T10:08:13.654283Z","level":"TRACE","fields":{"event_name":"ClientHandshakeEnd","test_name":"ecdsa_CLASSIC_MC_ELIECE_348864F"},"target":"PERF_TEST","spans":[{"name":"Request"},{"name":"ExpectFinished"}]}
{"timestamp":"2022-01-05T10:08:13.853942Z","level":"TRACE","fields":{"event_name":"RequestEnd","test_name":"ecdsa_CLASSIC_MC_ELIECE_348864F"},"target":"PERF_TEST","spans":[{"name":"Request"}]}
