{"timestamp":"2022-01-05T10:09:25.770315Z","level":"TRACE","fields":{"event_name":"RequestStart","test_name":"rainier4l1_NTRU_PRIME_NTRU_LPR_653"},"target":"PERF_TEST","spans":[{"name":"Request"}]}
{"timestamp":"2022-01-05T10:09:25.871076Z","level":"TRACE","fields":{"event_name":"ClientHandshakeStart","test_name":"rainier4l1_NTRU_PRIME_NTRU_LPR_653"},"target":"PERF_TEST","spans":[{"name":"Request"},{"name":"ClientHello"}]}
{"timestamp":"2022-01-05T10:09:25.871116Z","level":"TRACE","fields":{"event_name":"KeyGenerationStart","test_name":"rainier4l1_NTRU_PRIME_NTRU_LPR_653"},"target":"PERF_TEST","spans":[{"name":"Request"},{"name":"ClientHello"}]}
{"timestamp":"2022-01-05T10:09:25.871231Z","level":"TRACE","fields":{"event_name":"KeyGenerationEnd","test_name":"rainier4l1_NTRU_PRIME_NTRU_LPR_653"},"target":"PERF_TEST","spans":[{"name":"Request"},{"name":"ClientHello"}]}
{"timestamp":"2022-01-05T10:09:25.975515Z","level":"TRACE","fields":{"event_name":"KeyDecapsulationStart","test_name":"rainier4l1_NTRU_PRIME_NTRU_LPR_653"},"target":"PERF_TEST","spans":[{"name":"Request"},{"name":"ExpectServerHello"}]}
{"timestamp":"2022-01-05T10:09:25.975601Z","level":"TRACE","fields":{"event_name":"KeyDecapsulationEnd","test_name":"rainier4l1_NTRU_PRIME_NTRU_LPR_653"},"target":"PERF_TEST","spans":[{"name":"Request"},{"name":"ExpectServerHello"}]}
{"timestamp":"2022-01-05T10:09:26.078445Z","level":"TRACE","fields":{"event_name":"SignatureVerifyStart","test_name":"rainier4l1_NTRU_PRIME_NTRU_LPR_653"},"target":"PERF_TEST","spans":[{"name":"Request"},{"name":"ExpectServerHello"}]}
{"timestamp":"2022-01-05T10:09:26.080983Z","level":"TRACE","fields":{"event_name":"SignatureVerifyEnd","test_name":"rainier4l1_NTRU_PRIME_NTRU_LPR_653"},"target":"PERF_TEST","spans":[{"name":"Request"},{"name":"ExpectServerHello"}]}
{"timestamp":"2022-01-05T10:09:26.081050Z","level":"TRACE","fields":{"event_name":"ClientHandshakeEnd","test_name":"rainier4l1_NTRU_PRIME_NTRU_LPR_653"},"target":"PERF_TEST","spans":[{"name":"Request"},{"name":"ExpectFinished"}]}
{"timestamp":"2022-01-05T10:09:26.281006Z","level":"TRACE","fields":{"event_name":"RequestEnd","test_name":"rainier4l1_NTRU_PRIME_NTRU_LPR_653"},"target":"PERF_TEST","spans":[{"name":"Request"}]}
