{"timestamp":"2022-01-05T10:08:09.989391Z","level":"TRACE","fields":{"event_name":"RequestStart","test_name":"dilithium2_SECP_256_R1"},"target":"PERF_TEST","spans":[{"name":"Request"}]}
{"timestamp":"2022-01-05T10:08:10.090289Z","level":"TRACE","fields":{"event_name":"ClientHandshakeStart","test_name":"dilithium2_SECP_256_R1"},"target":"PERF_TEST","spans":[{"name":"Request"},{"name":"ClientHello"}]}
{"timestamp":"2022-01-05T10:08:10.090328Z","level":"TRACE","fields":{"event_name":"KeyGenerationStart","test_name":"dilithium2_SECP_256_R1"},"target":"PERF_TEST","spans":[{"name":"Request"},{"name":"ClientHello"}]}
{"timestamp":"2022-01-05T10:08:10.090388Z","level":"TRACE","fields":{"event_name":"KeyGenerationEnd","test_name":"dilithium2_SECP_256_R1"},"target":"PERF_TEST","spans":[{"name":"Request"},{"name":"ClientHello"}]}
{"timestamp":"2022-01-05T10:08:10.190926Z","level":"TRACE","fields":{"event_name":"KeyDecapsulationStart","test_name":"dilithium2_SECP_256_R1"},"target":"PERF_TEST","spans":[{"name":"Request"},{"name":"ExpectServerHello"}]}
{"timestamp":"2022-01-05T10:08:10.191032Z","level":"TRACE","fields":{"event_name":"KeyDecapsulationEnd","test_name":"dilithium2_SECP_256_R1"},"target":"PERF_TEST","spans":[{"name":"Request"},{"name":"ExpectServerHello"}]}
{"timestamp":"2022-01-05T10:08:10.191259Z","level":"TRACE","fields":{"event_name":"SignatureVerifyStart","test_name":"dilithium2_SECP_256_R1"},"target":"PERF_TEST","spans":[{"name":"Request"},{"name":"ExpectServerHello"}]}
{"timestamp":"2022-01-05T10:08:10.191318Z","level":"TRACE","fields":{"event_name":"SignatureVerifyEnd","test_name":"dilithium2_SECP_256_R1"},"target":"PERF_TEST","spans":[{"name":"Request"},{"name":"ExpectServerHello"}]}
{"timestamp":"2022-01-05T10:08:10.191359Z","level":"TRACE","fields":{"event_name":"ClientHandshakeEnd","test_name":"dilithium2_SECP_256_R1"},"target":"PERF_TEST","spans":[{"name":"Request"},{"name":"ExpectFinished"}]}
{"timestamp":"2022-01-05T10:08:10.391579Z","level":"TRACE","fields":{"event_name":"RequestEnd","test_name":"dilithium2_SECP_256_R1"},"target":"PERF_TEST","spans":[{"name":"Request"}]}
