{"timestamp":"2022-01-05T10:03:47.156762Z","level":"TRACE","fields":{"event_name":"RequestStart","test_name":"rainbowIcircumzenithal_NTRU_HPS_2048509"},"target":"PERF_TEST","spans":[{"name":"Request"}]}
{"timestamp":"2022-01-05T10:03:47.166825Z","level":"TRACE","fields":{"event_name":"ClientHandshakeStart","test_name":"rainbowIcircumzenithal_NTRU_HPS_2048509"},"target":"PERF_TEST","spans":[{"name":"Request"},{"name":"ClientHello"}]}
{"timestamp":"2022-01-05T10:03:47.166852Z","level":"TRACE","fields":{"event_name":"KeyGenerationStart","test_name":"rainbowIcircumzenithal_NTRU_HPS_2048509"},"target":"PERF_TEST","spans":[{"name":"Request"},{"name":"ClientHello"}]}
{"timestamp":"2022-01-05T10:03:47.167013Z","level":"TRACE","fields":{"event_name":"KeyGenerationEnd","test_name":"rainbowIcircumzenithal_NTRU_HPS_2048509"},"target":"PERF_TEST","spans":[{"name":"Request"},{"name":"ClientHello"}]}
{"timestamp":"2022-01-05T10:03:47.179343Z","level":"TRACE","fields":{"event_name":"KeyDecapsulationStart","test_name":"rainbowIcircumzenithal_NTRU_HPS_2048509"},"target":"PERF_TEST","spans":[{"name":"Request"},{"name":"ExpectServerHello"}]}
{"timestamp":"2022-01-05T10:03:47.179376Z","level":"TRACE","fields":{"event_name":"KeyDecapsulationEnd","test_name":"rainbowIcircumzenithal_NTRU_HPS_2048509"},"target":"PERF_TEST","spans":[{"name":"Request"},{"name":"ExpectServerHello"}]}
{"timestamp":"2022-01-05T10:03:47.210122Z","level":"TRACE","fields":{"event_name":"SignatureVerifyStart","test_name":"rainbowIcircumzenithal_NTRU_HPS_2048509"},"target":"PERF_TEST","spans":[{"name":"Request"},{"name":"ExpectServerHello"}]}
{"timestamp":"2022-01-05T10:03:47.212469Z","level":"TRACE","fields":{"event_name":"SignatureVerifyEnd","test_name":"rainbowIcircumzenithal_NTRU_HPS_2048509"},"target":"PERF_TEST","spans":[{"name":"Request"},{"name":"ExpectServerHello"}]}
{"timestamp":"2022-01-05T10:03:47.212503Z","level":"TRACE","fields":{"event_name":"ClientHandshakeEnd","test_name":"rainbowIcircumzenithal_NTRU_HPS_2048509"},"target":"PERF_TEST","spans":[{"name":"Request"},{"name":"ExpectFinished"}]}
{"timestamp":"2022-01-05T10:03:47.231013Z","level":"TRACE","fields":{"event_name":"RequestEnd","test_name":"rainbowIcircumzenithal_NTRU_HPS_2048509"},"target":"PERF_TEST","spans":[{"name":"Request"}]}
