{"timestamp":"2022-01-05T09:56:37.141252Z","level":"TRACE","fields":{"event_name":"RequestStart","test_name":"rainier4l1_NTRU_PRIME_NTRU_LPR_653"},"target":"PERF_TEST","spans":[{"name":"Request"}]}
{"timestamp":"2022-01-05T09:56:37.142411Z","level":"TRACE","fields":{"event_name":"ClientHandshakeStart","test_name":"rainier4l1_NTRU_PRIME_NTRU_LPR_653"},"target":"PERF_TEST","spans":[{"name":"Request"},{"name":"ClientHello"}]}
{"timestamp":"2022-01-05T09:56:37.142436Z","level":"TRACE","fields":{"event_name":"KeyGenerationStart","test_name":"rainier4l1_NTRU_PRIME_NTRU_LPR_653"},"target":"PERF_TEST","spans":[{"name":"Request"},{"name":"ClientHello"}]}
{"timestamp":"2022-01-05T09:56:37.142545Z","level":"TRACE","fields":{"event_name":"KeyGenerationEnd","test_name":"rainier4l1_NTRU_PRIME_NTRU_LPR_653"},"target":"PERF_TEST","spans":[{"name":"Request"},{"name":"ClientHello"}]}
{"timestamp":"2022-01-05T09:56:37.146954Z","level":"TRACE","fields":{"event_name":"KeyDecapsulationStart","test_name":"rainier4l1_NTRU_PRIME_NTRU_LPR_653"},"target":"PERF_TEST","spans":[{"name":"Request"},{"name":"ExpectServerHello"}]}
{"timestamp":"2022-01-05T09:56:37.147032Z","level":"TRACE","fields":{"event_name":"KeyDecapsulationEnd","test_name":"rainier4l1_NTRU_PRIME_NTRU_LPR_653"},"target":"PERF_TEST","spans":[{"name":"Request"},{"name":"ExpectServerHello"}]}
{"timestamp":"2022-01-05T09:56:37.150485Z","level":"TRACE","fields":{"event_name":"SignatureVerifyStart","test_name":"rainier4l1_NTRU_PRIME_NTRU_LPR_653"},"target":"PERF_TEST","spans":[{"name":"Request"},{"name":"ExpectServerHello"}]}
{"timestamp":"2022-01-05T09:56:37.153112Z","level":"TRACE","fields":{"event_name":"SignatureVerifyEnd","test_name":"rainier4l1_NTRU_PRIME_NTRU_LPR_653"},"target":"PERF_TEST","spans":[{"name":"Request"},{"name":"ExpectServerHello"}]}
{"timestamp":"2022-01-05T09:56:37.153185Z","level":"TRACE","fields":{"event_name":"ClientHandshakeEnd","test_name":"rainier4l1_NTRU_PRIME_NTRU_LPR_653"},"target":"PERF_TEST","spans":[{"name":"Request"},{"name":"ExpectFinished"}]}
{"timestamp":"2022-01-05T09:56:37.153993Z","level":"TRACE","fields":{"event_name":"RequestEnd","test_name":"rainier4l1_NTRU_PRIME_NTRU_LPR_653"},"target":"PERF_TEST","spans":[{"name":"Request"}]}
