{"timestamp":"2022-01-05T09:56:30.356988Z","level":"TRACE","fields":{"event_name":"RequestStart","test_name":"falcon512_SECP_256_R1"},"target":"PERF_TEST","spans":[{"name":"Request"}]}
{"timestamp":"2022-01-05T09:56:30.357976Z","level":"TRACE","fields":{"event_name":"ClientHandshakeStart","test_name":"falcon512_SECP_256_R1"},"target":"PERF_TEST","spans":[{"name":"Request"},{"name":"ClientHello"}]}
{"timestamp":"2022-01-05T09:56:30.357997Z","level":"TRACE","fields":{"event_name":"KeyGenerationStart","test_name":"falcon512_SECP_256_R1"},"target":"PERF_TEST","spans":[{"name":"Request"},{"name":"ClientHello"}]}
{"timestamp":"2022-01-05T09:56:30.358048Z","level":"TRACE","fields":{"event_name":"KeyGenerationEnd","test_name":"falcon512_SECP_256_R1"},"target":"PERF_TEST","spans":[{"name":"Request"},{"name":"ClientHello"}]}
{"timestamp":"2022-01-05T09:56:30.358999Z","level":"TRACE","fields":{"event_name":"KeyDecapsulationStart","test_name":"falcon512_SECP_256_R1"},"target":"PERF_TEST","spans":[{"name":"Request"},{"name":"ExpectServerHello"}]}
{"timestamp":"2022-01-05T09:56:30.359067Z","level":"TRACE","fields":{"event_name":"KeyDecapsulationEnd","test_name":"falcon512_SECP_256_R1"},"target":"PERF_TEST","spans":[{"name":"Request"},{"name":"ExpectServerHello"}]}
{"timestamp":"2022-01-05T09:56:30.359224Z","level":"TRACE","fields":{"event_name":"SignatureVerifyStart","test_name":"falcon512_SECP_256_R1"},"target":"PERF_TEST","spans":[{"name":"Request"},{"name":"ExpectServerHello"}]}
{"timestamp":"2022-01-05T09:56:30.359296Z","level":"TRACE","fields":{"event_name":"SignatureVerifyEnd","test_name":"falcon512_SECP_256_R1"},"target":"PERF_TEST","spans":[{"name":"Request"},{"name":"ExpectServerHello"}]}
{"timestamp":"2022-01-05T09:56:30.359324Z","level":"TRACE","fields":{"event_name":"ClientHandshakeEnd","test_name":"falcon512_SECP_256_R1"},"target":"PERF_TEST","spans":[{"name":"Request"},{"name":"ExpectFinished"}]}
{"timestamp":"2022-01-05T09:56:30.360056Z","level":"TRACE","fields":{"event_name":"RequestEnd","test_name":"falcon512_SECP_256_R1"},"target":"PERF_TEST","spans":[{"name":"Request"}]}
