{"timestamp":"2022-01-05T09:56:34.708407Z","level":"TRACE","fields":{"event_name":"RequestStart","test_name":"rainbowIcompressed_KYBER512_90S"},"target":"PERF_TEST","spans":[{"name":"Request"}]}
{"timestamp":"2022-01-05T09:56:34.709604Z","level":"TRACE","fields":{"event_name":"ClientHandshakeStart","test_name":"rainbowIcompressed_KYBER512_90S"},"target":"PERF_TEST","spans":[{"name":"Request"},{"name":"ClientHello"}]}
{"timestamp":"2022-01-05T09:56:34.709626Z","level":"TRACE","fields":{"event_name":"KeyGenerationStart","test_name":"rainbowIcompressed_KYBER512_90S"},"target":"PERF_TEST","spans":[{"name":"Request"},{"name":"ClientHello"}]}
{"timestamp":"2022-01-05T09:56:34.709679Z","level":"TRACE","fields":{"event_name":"KeyGenerationEnd","test_name":"rainbowIcompressed_KYBER512_90S"},"target":"PERF_TEST","spans":[{"name":"Request"},{"name":"ClientHello"}]}
{"timestamp":"2022-01-05T09:56:34.785084Z","level":"TRACE","fields":{"event_name":"KeyDecapsulationStart","test_name":"rainbowIcompressed_KYBER512_90S"},"target":"PERF_TEST","spans":[{"name":"Request"},{"name":"ExpectServerHello"}]}
{"timestamp":"2022-01-05T09:56:34.785148Z","level":"TRACE","fields":{"event_name":"KeyDecapsulationEnd","test_name":"rainbowIcompressed_KYBER512_90S"},"target":"PERF_TEST","spans":[{"name":"Request"},{"name":"ExpectServerHello"}]}
{"timestamp":"2022-01-05T09:56:34.789105Z","level":"TRACE","fields":{"event_name":"SignatureVerifyStart","test_name":"rainbowIcompressed_KYBER512_90S"},"target":"PERF_TEST","spans":[{"name":"Request"},{"name":"ExpectServerHello"}]}
{"timestamp":"2022-01-05T09:56:34.791467Z","level":"TRACE","fields":{"event_name":"SignatureVerifyEnd","test_name":"rainbowIcompressed_KYBER512_90S"},"target":"PERF_TEST","spans":[{"name":"Request"},{"name":"ExpectServerHello"}]}
{"timestamp":"2022-01-05T09:56:34.791508Z","level":"TRACE","fields":{"event_name":"ClientHandshakeEnd","test_name":"rainbowIcompressed_KYBER512_90S"},"target":"PERF_TEST","spans":[{"name":"Request"},{"name":"ExpectFinished"}]}
{"timestamp":"2022-01-05T09:56:34.792615Z","level":"TRACE","fields":{"event_name":"RequestEnd","test_name":"rainbowIcompressed_KYBER512_90S"},"target":"PERF_TEST","spans":[{"name":"Request"}]}
